final_project_code
…
read_data

## # A tibble: 36 × 8
##    Participant  Text `Comprehension score (%)` `Time (minutes)` `Time (seconds)`
##    <chr>       <dbl>                     <dbl>            <dbl>            <dbl>
##  1 P1              1                       100                2               17
##  2 P1              2                        75                2               45
##  3 P1              3                        75                1               58
##  4 P2              1                        75                3               14
##  5 P2              2                        50                2               36
##  6 P2              3                        75                2               51
##  7 P3              1                        75                2                5
##  8 P3              2                       100                2               28
##  9 P3              3                        75                1               49
## 10 P4              1                        75                2               22
## # ℹ 26 more rows
## # ℹ 3 more variables: total_time <dbl>, format <chr>, music <chr>
…
